{
  "user": {
    "name": "Mateusz Pytel",
    "username": "empe",
    "id": 1407801,
    "state": "active",
    "avatar_url": "https://gitlab.com/uploads/-/system/user/avatar/1407801/avatar.png",
    "web_url": "https://gitlab.com/empe",
    "created_at": "2017-06-20T06:57:42.831Z",
    "bio": "",
    "location": "Kraków, Poland",
    "skype": "",
    "linkedin": "https://www.linkedin.com/in/mateusz-pytel-a8843b22",
    "twitter": "",
    "website_url": "",
    "organization": "",
    "last_sign_in_at": "2017-07-03T19:37:04.599Z",
    "confirmed_at": "2017-06-20T06:57:55.619Z",
    "last_activity_on": "2017-07-25",
    "email": "mateusz.pytel.87@gmail.com",
    "color_scheme_id": 2,
    "projects_limit": 100000,
    "current_sign_in_at": "2017-07-25T07:12:34.730Z"
  },
  "groups": [
    {
      "id": 1808217,
      "name": "gibon-env",
      "path": "gibon-env",
      "description": "",
      "visibility": "private",
      "ldap_cn": null,
      "ldap_access": null,
      "lfs_enabled": true,
      "avatar_url": null,
      "web_url": "https://gitlab.com/groups/gibon-env",
      "request_access_enabled": false,
      "full_name": "gibon-env",
      "full_path": "gibon-env",
      "parent_id": null,
      "projects": [
        {
          "id": 3778156,
          "description": "",
          "default_branch": null,
          "tag_list": [],
          "archived": false,
          "visibility": "private",
          "ssh_url_to_repo": "git@gitlab.com:gibon-env/esheeran.git",
          "http_url_to_repo": "https://gitlab.com/gibon-env/esheeran.git",
          "web_url": "https://gitlab.com/gibon-env/esheeran",
          "name": "esheeran",
          "name_with_namespace": "gibon-env / esheeran",
          "path": "esheeran",
          "path_with_namespace": "gibon-env/esheeran",
          "container_registry_enabled": true,
          "issues_enabled": true,
          "merge_requests_enabled": true,
          "wiki_enabled": true,
          "jobs_enabled": true,
          "snippets_enabled": true,
          "created_at": "2017-07-25T14:53:34.529Z",
          "last_activity_at": "2017-07-25T14:53:34.529Z",
          "shared_runners_enabled": true,
          "lfs_enabled": true,
          "creator_id": 1407801,
          "namespace": {
            "id": 1808217,
            "name": "gibon-env",
            "path": "gibon-env",
            "kind": "group",
            "full_path": "gibon-env",
            "parent_id": null,
            "members_count_with_descendants": 1,
            "plan": null
          },
          "import_status": "none",
          "avatar_url": null,
          "star_count": 0,
          "forks_count": 0,
          "open_issues_count": 3,
          "public_jobs": true,
          "ci_config_path": null,
          "shared_with_groups": [],
          "only_allow_merge_if_pipeline_succeeds": false,
          "request_access_enabled": false,
          "only_allow_merge_if_all_discussions_are_resolved": false,
          "printing_merge_request_link_enabled": true,
          "approvals_before_merge": 0
        },
        {
          "id": 3778111,
          "description": "",
          "default_branch": null,
          "tag_list": [],
          "archived": false,
          "visibility": "private",
          "ssh_url_to_repo": "git@gitlab.com:gibon-env/smooth.git",
          "http_url_to_repo": "https://gitlab.com/gibon-env/smooth.git",
          "web_url": "https://gitlab.com/gibon-env/smooth",
          "name": "Smooth Criminal",
          "name_with_namespace": "gibon-env / Smooth Criminal",
          "path": "smooth",
          "path_with_namespace": "gibon-env/smooth",
          "container_registry_enabled": true,
          "issues_enabled": true,
          "merge_requests_enabled": true,
          "wiki_enabled": true,
          "jobs_enabled": true,
          "snippets_enabled": true,
          "created_at": "2017-07-25T14:48:17.899Z",
          "last_activity_at": "2017-07-25T14:48:17.899Z",
          "shared_runners_enabled": true,
          "lfs_enabled": true,
          "creator_id": 1407801,
          "namespace": {
            "id": 1808217,
            "name": "gibon-env",
            "path": "gibon-env",
            "kind": "group",
            "full_path": "gibon-env",
            "parent_id": null,
            "members_count_with_descendants": 1,
            "plan": null
          },
          "import_status": "none",
          "avatar_url": null,
          "star_count": 0,
          "forks_count": 0,
          "open_issues_count": 3,
          "public_jobs": true,
          "ci_config_path": null,
          "shared_with_groups": [],
          "only_allow_merge_if_pipeline_succeeds": false,
          "request_access_enabled": false,
          "only_allow_merge_if_all_discussions_are_resolved": false,
          "printing_merge_request_link_enabled": true,
          "approvals_before_merge": 0
        }
      ],
      "shared_projects": [],
      "shared_runners_minutes_limit": null
    }
  ],
  "issues": [
    {
      "id": 6221647,
      "iid": 3,
      "project_id": 3778156,
      "title": "I see fire",
      "description": "Inside the mount(ain)",
      "state": "opened",
      "created_at": "2017-07-25T14:57:27.190Z",
      "updated_at": "2017-07-25T14:57:27.354Z",
      "labels": [
        "critical",
        "support"
      ],
      "milestone": null,
      "assignees": [
        {
          "name": "Mateusz Pytel",
          "username": "empe",
          "id": 1407801,
          "state": "active",
          "avatar_url": "https://gitlab.com/uploads/-/system/user/avatar/1407801/avatar.png",
          "web_url": "https://gitlab.com/empe"
        }
      ],
      "author": {
        "name": "Mateusz Pytel",
        "username": "empe",
        "id": 1407801,
        "state": "active",
        "avatar_url": "https://gitlab.com/uploads/-/system/user/avatar/1407801/avatar.png",
        "web_url": "https://gitlab.com/empe"
      },
      "assignee": {
        "name": "Mateusz Pytel",
        "username": "empe",
        "id": 1407801,
        "state": "active",
        "avatar_url": "https://gitlab.com/uploads/-/system/user/avatar/1407801/avatar.png",
        "web_url": "https://gitlab.com/empe"
      },
      "user_notes_count": 0,
      "upvotes": 0,
      "downvotes": 0,
      "due_date": null,
      "confidential": false,
      "weight": null,
      "web_url": "https://gitlab.com/gibon-env/esheeran/issues/3"
    },
    {
      "id": 6221626,
      "iid": 2,
      "project_id": 3778156,
      "title": "Club isn't the best place to find love so the bar is where I go ... mmmm",
      "description": "",
      "state": "opened",
      "created_at": "2017-07-25T14:56:30.042Z",
      "updated_at": "2017-07-25T14:56:30.337Z",
      "labels": [
        "discussion",
        "enhancement"
      ],
      "milestone": null,
      "assignees": [
        {
          "name": "Mateusz Pytel",
          "username": "empe",
          "id": 1407801,
          "state": "active",
          "avatar_url": "https://gitlab.com/uploads/-/system/user/avatar/1407801/avatar.png",
          "web_url": "https://gitlab.com/empe"
        }
      ],
      "author": {
        "name": "Mateusz Pytel",
        "username": "empe",
        "id": 1407801,
        "state": "active",
        "avatar_url": "https://gitlab.com/uploads/-/system/user/avatar/1407801/avatar.png",
        "web_url": "https://gitlab.com/empe"
      },
      "assignee": {
        "name": "Mateusz Pytel",
        "username": "empe",
        "id": 1407801,
        "state": "active",
        "avatar_url": "https://gitlab.com/uploads/-/system/user/avatar/1407801/avatar.png",
        "web_url": "https://gitlab.com/empe"
      },
      "user_notes_count": 0,
      "upvotes": 0,
      "downvotes": 0,
      "due_date": null,
      "confidential": false,
      "weight": null,
      "web_url": "https://gitlab.com/gibon-env/esheeran/issues/2"
    },
    {
      "id": 6221558,
      "iid": 1,
      "project_id": 3778156,
      "title": "How'd I get so faded?",
      "description": "",
      "state": "opened",
      "created_at": "2017-07-25T14:54:21.125Z",
      "updated_at": "2017-07-25T14:59:21.212Z",
      "labels": [
        "Doing",
        "To Do",
        "discussion",
        "suggestion"
      ],
      "milestone": null,
      "assignees": [],
      "author": {
        "name": "Mateusz Pytel",
        "username": "empe",
        "id": 1407801,
        "state": "active",
        "avatar_url": "https://gitlab.com/uploads/-/system/user/avatar/1407801/avatar.png",
        "web_url": "https://gitlab.com/empe"
      },
      "assignee": null,
      "user_notes_count": 0,
      "upvotes": 0,
      "downvotes": 0,
      "due_date": null,
      "confidential": false,
      "weight": null,
      "web_url": "https://gitlab.com/gibon-env/esheeran/issues/1"
    },
    {
      "id": 6221455,
      "iid": 3,
      "project_id": 3778111,
      "title": "Are you okay.. Annie?",
      "description": "?????",
      "state": "opened",
      "created_at": "2017-07-25T14:52:12.782Z",
      "updated_at": "2017-07-25T15:00:23.152Z",
      "labels": [],
      "milestone": null,
      "assignees": [],
      "author": {
        "name": "Mateusz Pytel",
        "username": "empe",
        "id": 1407801,
        "state": "active",
        "avatar_url": "https://gitlab.com/uploads/-/system/user/avatar/1407801/avatar.png",
        "web_url": "https://gitlab.com/empe"
      },
      "assignee": null,
      "user_notes_count": 0,
      "upvotes": 0,
      "downvotes": 0,
      "due_date": null,
      "confidential": false,
      "weight": null,
      "web_url": "https://gitlab.com/gibon-env/smooth/issues/3"
    },
    {
      "id": 6221428,
      "iid": 2,
      "project_id": 3778111,
      "title": "Are you okay",
      "description": "Annie",
      "state": "opened",
      "created_at": "2017-07-25T14:51:44.330Z",
      "updated_at": "2017-07-25T14:51:44.330Z",
      "labels": [
        "To Do"
      ],
      "milestone": null,
      "assignees": [],
      "author": {
        "name": "Mateusz Pytel",
        "username": "empe",
        "id": 1407801,
        "state": "active",
        "avatar_url": "https://gitlab.com/uploads/-/system/user/avatar/1407801/avatar.png",
        "web_url": "https://gitlab.com/empe"
      },
      "assignee": null,
      "user_notes_count": 0,
      "upvotes": 0,
      "downvotes": 0,
      "due_date": null,
      "confidential": false,
      "weight": null,
      "web_url": "https://gitlab.com/gibon-env/smooth/issues/2"
    },
    {
      "id": 6221389,
      "iid": 1,
      "project_id": 3778111,
      "title": "Are you okay",
      "description": "Are you okay",
      "state": "opened",
      "created_at": "2017-07-25T14:51:09.703Z",
      "updated_at": "2017-07-25T14:51:09.838Z",
      "labels": [
        "Doing"
      ],
      "milestone": null,
      "assignees": [
        {
          "name": "Mateusz Pytel",
          "username": "empe",
          "id": 1407801,
          "state": "active",
          "avatar_url": "https://gitlab.com/uploads/-/system/user/avatar/1407801/avatar.png",
          "web_url": "https://gitlab.com/empe"
        }
      ],
      "author": {
        "name": "Mateusz Pytel",
        "username": "empe",
        "id": 1407801,
        "state": "active",
        "avatar_url": "https://gitlab.com/uploads/-/system/user/avatar/1407801/avatar.png",
        "web_url": "https://gitlab.com/empe"
      },
      "assignee": {
        "name": "Mateusz Pytel",
        "username": "empe",
        "id": 1407801,
        "state": "active",
        "avatar_url": "https://gitlab.com/uploads/-/system/user/avatar/1407801/avatar.png",
        "web_url": "https://gitlab.com/empe"
      },
      "user_notes_count": 0,
      "upvotes": 0,
      "downvotes": 0,
      "due_date": null,
      "confidential": false,
      "weight": null,
      "web_url": "https://gitlab.com/gibon-env/smooth/issues/1"
    }
  ]
}